newmtl Matière de la dilatation avant Calque 2
Ka 0.000000 0.000000 0.000000
Kd 0.500000 0.500000 0.500000
Ks 0.200000 0.200000 0.200000
Ns 6.062867
d 1.000000
Tr 0.000000
map_Kd -s 0.814920 0.765340 1.0 Calque 20000.psd 

newmtl Matière du biseau avant Calque 2
Ka 0.000000 0.000000 0.000000
Kd 0.500000 0.500000 0.500000
Ks 0.200000 0.200000 0.200000
Ns 6.062867
d 1.000000
Tr 0.000000
map_Kd -s 0.814920 0.765340 1.0 Calque 20000.psd 

newmtl Matière de l'extrusion Calque 2
Ka 0.000000 0.000000 0.000000
Kd 0.500000 0.500000 0.500000
Ks 0.200000 0.200000 0.200000
Ns 6.062867
d 1.000000
Tr 0.000000
map_Kd Matière de l'extrusion Calque 2 - Texture par défaut0000.psd 

newmtl Matière du biseau arrière Calque 2
Ka 0.000000 0.000000 0.000000
Kd 0.500000 0.500000 0.500000
Ks 0.200000 0.200000 0.200000
Ns 6.062867
d 1.000000
Tr 0.000000
map_Kd -s 0.814920 0.765340 1.0 Calque 20000.psd 

newmtl Matière de la dilatation arrière Calque 2
Ka 0.000000 0.000000 0.000000
Kd 0.500000 0.500000 0.500000
Ks 0.200000 0.200000 0.200000
Ns 6.062867
d 1.000000
Tr 0.000000
map_Kd -s 0.814920 0.765340 1.0 Calque 20000.psd 

